<mxfile host="app.diagrams.net" modified="2021-12-20T16:41:35.646Z" agent="5.0 (Windows)" etag="dMg_j6Mmrm_GLkg-bYib" version="16.0.0" type="gitlab">
  <diagram id="nUCcApww6mRKuCWJc9hJ" name="Page-1">
    <mxGraphModel dx="1673" dy="834" grid="1" gridSize="10" guides="1" tooltips="1" connect="1" arrows="1" fold="1" page="1" pageScale="1" pageWidth="850" pageHeight="1100" math="0" shadow="0">
      <root>
        <mxCell id="0" />
        <mxCell id="1" parent="0" />
        <mxCell id="SMKUMiAi2w_2l_LrFnpY-1" value="DB" style="shape=cylinder3;whiteSpace=wrap;html=1;boundedLbl=1;backgroundOutline=1;size=15;fillColor=#fff2cc;strokeColor=#d6b656;" vertex="1" parent="1">
          <mxGeometry x="395" y="260" width="85" height="160" as="geometry" />
        </mxCell>
        <mxCell id="SMKUMiAi2w_2l_LrFnpY-2" value="API" style="rounded=0;whiteSpace=wrap;html=1;fillColor=#dae8fc;strokeColor=#6c8ebf;" vertex="1" parent="1">
          <mxGeometry x="150" y="240" width="120" height="60" as="geometry" />
        </mxCell>
        <mxCell id="SMKUMiAi2w_2l_LrFnpY-3" value="API" style="rounded=0;whiteSpace=wrap;html=1;fillColor=#dae8fc;strokeColor=#6c8ebf;" vertex="1" parent="1">
          <mxGeometry x="370" y="140" width="120" height="60" as="geometry" />
        </mxCell>
        <mxCell id="SMKUMiAi2w_2l_LrFnpY-4" value="API" style="rounded=0;whiteSpace=wrap;html=1;fillColor=#dae8fc;strokeColor=#6c8ebf;" vertex="1" parent="1">
          <mxGeometry x="610" y="230" width="120" height="60" as="geometry" />
        </mxCell>
        <mxCell id="SMKUMiAi2w_2l_LrFnpY-5" value="API" style="rounded=0;whiteSpace=wrap;html=1;fillColor=#dae8fc;strokeColor=#6c8ebf;" vertex="1" parent="1">
          <mxGeometry x="580" y="450" width="120" height="60" as="geometry" />
        </mxCell>
        <mxCell id="SMKUMiAi2w_2l_LrFnpY-6" value="API" style="rounded=0;whiteSpace=wrap;html=1;fillColor=#dae8fc;strokeColor=#6c8ebf;" vertex="1" parent="1">
          <mxGeometry x="190" y="460" width="120" height="60" as="geometry" />
        </mxCell>
        <mxCell id="SMKUMiAi2w_2l_LrFnpY-7" value="" style="endArrow=classic;startArrow=classic;html=1;rounded=0;exitX=1;exitY=0.25;exitDx=0;exitDy=0;entryX=0;entryY=0.5;entryDx=0;entryDy=0;entryPerimeter=0;" edge="1" parent="1" source="SMKUMiAi2w_2l_LrFnpY-2" target="SMKUMiAi2w_2l_LrFnpY-1">
          <mxGeometry width="50" height="50" relative="1" as="geometry">
            <mxPoint x="300" y="240" as="sourcePoint" />
            <mxPoint x="350" y="190" as="targetPoint" />
          </mxGeometry>
        </mxCell>
        <mxCell id="SMKUMiAi2w_2l_LrFnpY-8" value="" style="endArrow=classic;startArrow=classic;html=1;rounded=0;" edge="1" parent="1" source="SMKUMiAi2w_2l_LrFnpY-3" target="SMKUMiAi2w_2l_LrFnpY-1">
          <mxGeometry width="50" height="50" relative="1" as="geometry">
            <mxPoint x="450" y="190" as="sourcePoint" />
            <mxPoint x="575" y="275" as="targetPoint" />
          </mxGeometry>
        </mxCell>
        <mxCell id="SMKUMiAi2w_2l_LrFnpY-9" value="" style="endArrow=classic;startArrow=classic;html=1;rounded=0;exitX=-0.008;exitY=0.133;exitDx=0;exitDy=0;exitPerimeter=0;" edge="1" parent="1" source="SMKUMiAi2w_2l_LrFnpY-4" target="SMKUMiAi2w_2l_LrFnpY-1">
          <mxGeometry width="50" height="50" relative="1" as="geometry">
            <mxPoint x="441.32352941176464" y="210" as="sourcePoint" />
            <mxPoint x="443.97058823529414" y="270" as="targetPoint" />
            <Array as="points">
              <mxPoint x="520" y="250" />
            </Array>
          </mxGeometry>
        </mxCell>
        <mxCell id="SMKUMiAi2w_2l_LrFnpY-10" value="" style="endArrow=classic;startArrow=classic;html=1;rounded=0;" edge="1" parent="1" source="SMKUMiAi2w_2l_LrFnpY-5" target="SMKUMiAi2w_2l_LrFnpY-1">
          <mxGeometry width="50" height="50" relative="1" as="geometry">
            <mxPoint x="619.04" y="247.98000000000002" as="sourcePoint" />
            <mxPoint x="490" y="303.6363636363636" as="targetPoint" />
            <Array as="points">
              <mxPoint x="570" y="340" />
            </Array>
          </mxGeometry>
        </mxCell>
        <mxCell id="SMKUMiAi2w_2l_LrFnpY-11" value="" style="endArrow=classic;startArrow=classic;html=1;rounded=0;" edge="1" parent="1" source="SMKUMiAi2w_2l_LrFnpY-6" target="SMKUMiAi2w_2l_LrFnpY-1">
          <mxGeometry width="50" height="50" relative="1" as="geometry">
            <mxPoint x="635" y="460" as="sourcePoint" />
            <mxPoint x="490" y="350" as="targetPoint" />
            <Array as="points">
              <mxPoint x="420" y="510" />
            </Array>
          </mxGeometry>
        </mxCell>
        <mxCell id="SMKUMiAi2w_2l_LrFnpY-12" value="Client" style="rounded=1;whiteSpace=wrap;html=1;fillColor=#f8cecc;strokeColor=#b85450;" vertex="1" parent="1">
          <mxGeometry x="90" y="20" width="120" height="60" as="geometry" />
        </mxCell>
        <mxCell id="SMKUMiAi2w_2l_LrFnpY-13" value="Client" style="rounded=1;whiteSpace=wrap;html=1;fillColor=#f8cecc;strokeColor=#b85450;" vertex="1" parent="1">
          <mxGeometry x="360" y="10" width="120" height="60" as="geometry" />
        </mxCell>
        <mxCell id="SMKUMiAi2w_2l_LrFnpY-14" value="" style="endArrow=classic;startArrow=classic;html=1;rounded=0;" edge="1" parent="1" source="SMKUMiAi2w_2l_LrFnpY-2" target="SMKUMiAi2w_2l_LrFnpY-12">
          <mxGeometry width="50" height="50" relative="1" as="geometry">
            <mxPoint x="140" y="150" as="sourcePoint" />
            <mxPoint x="190" y="100" as="targetPoint" />
          </mxGeometry>
        </mxCell>
        <mxCell id="SMKUMiAi2w_2l_LrFnpY-15" value="" style="endArrow=classic;startArrow=classic;html=1;rounded=0;" edge="1" parent="1" source="SMKUMiAi2w_2l_LrFnpY-3" target="SMKUMiAi2w_2l_LrFnpY-13">
          <mxGeometry width="50" height="50" relative="1" as="geometry">
            <mxPoint x="211.81818181818176" y="250" as="sourcePoint" />
            <mxPoint x="168.18181818181824" y="90" as="targetPoint" />
          </mxGeometry>
        </mxCell>
        <mxCell id="SMKUMiAi2w_2l_LrFnpY-16" value="" style="endArrow=classic;startArrow=classic;html=1;rounded=0;" edge="1" parent="1" source="SMKUMiAi2w_2l_LrFnpY-4" target="SMKUMiAi2w_2l_LrFnpY-17">
          <mxGeometry width="50" height="50" relative="1" as="geometry">
            <mxPoint x="437.6923076923076" y="150" as="sourcePoint" />
            <mxPoint x="810" y="40" as="targetPoint" />
          </mxGeometry>
        </mxCell>
        <mxCell id="SMKUMiAi2w_2l_LrFnpY-19" value="Text" style="edgeLabel;html=1;align=center;verticalAlign=middle;resizable=0;points=[];" vertex="1" connectable="0" parent="SMKUMiAi2w_2l_LrFnpY-16">
          <mxGeometry x="0.3113" y="1" relative="1" as="geometry">
            <mxPoint as="offset" />
          </mxGeometry>
        </mxCell>
        <mxCell id="SMKUMiAi2w_2l_LrFnpY-17" value="Client" style="rounded=1;whiteSpace=wrap;html=1;fillColor=#f8cecc;strokeColor=#b85450;" vertex="1" parent="1">
          <mxGeometry x="740" width="120" height="60" as="geometry" />
        </mxCell>
        <mxCell id="SMKUMiAi2w_2l_LrFnpY-20" value="" style="endArrow=classic;startArrow=classic;html=1;rounded=0;" edge="1" parent="1" target="SMKUMiAi2w_2l_LrFnpY-22" source="SMKUMiAi2w_2l_LrFnpY-4">
          <mxGeometry width="50" height="50" relative="1" as="geometry">
            <mxPoint x="749.9965217391305" y="420" as="sourcePoint" />
            <mxPoint x="873.04" y="230" as="targetPoint" />
          </mxGeometry>
        </mxCell>
        <mxCell id="SMKUMiAi2w_2l_LrFnpY-21" value="Text" style="edgeLabel;html=1;align=center;verticalAlign=middle;resizable=0;points=[];" vertex="1" connectable="0" parent="SMKUMiAi2w_2l_LrFnpY-20">
          <mxGeometry x="0.3113" y="1" relative="1" as="geometry">
            <mxPoint as="offset" />
          </mxGeometry>
        </mxCell>
        <mxCell id="SMKUMiAi2w_2l_LrFnpY-22" value="Client" style="rounded=1;whiteSpace=wrap;html=1;fillColor=#f8cecc;strokeColor=#b85450;" vertex="1" parent="1">
          <mxGeometry x="803.04" y="190" width="120" height="60" as="geometry" />
        </mxCell>
        <mxCell id="SMKUMiAi2w_2l_LrFnpY-23" value="" style="endArrow=classic;startArrow=classic;html=1;rounded=0;" edge="1" parent="1" target="SMKUMiAi2w_2l_LrFnpY-25" source="SMKUMiAi2w_2l_LrFnpY-5">
          <mxGeometry width="50" height="50" relative="1" as="geometry">
            <mxPoint x="700" y="477.56734355573974" as="sourcePoint" />
            <mxPoint x="843.04" y="460" as="targetPoint" />
          </mxGeometry>
        </mxCell>
        <mxCell id="SMKUMiAi2w_2l_LrFnpY-24" value="Text" style="edgeLabel;html=1;align=center;verticalAlign=middle;resizable=0;points=[];" vertex="1" connectable="0" parent="SMKUMiAi2w_2l_LrFnpY-23">
          <mxGeometry x="0.3113" y="1" relative="1" as="geometry">
            <mxPoint as="offset" />
          </mxGeometry>
        </mxCell>
        <mxCell id="SMKUMiAi2w_2l_LrFnpY-25" value="Client" style="rounded=1;whiteSpace=wrap;html=1;fillColor=#f8cecc;strokeColor=#b85450;" vertex="1" parent="1">
          <mxGeometry x="773.04" y="420" width="120" height="60" as="geometry" />
        </mxCell>
        <mxCell id="SMKUMiAi2w_2l_LrFnpY-26" value="" style="endArrow=classic;startArrow=classic;html=1;rounded=0;" edge="1" parent="1" target="SMKUMiAi2w_2l_LrFnpY-28" source="SMKUMiAi2w_2l_LrFnpY-6">
          <mxGeometry width="50" height="50" relative="1" as="geometry">
            <mxPoint x="153.48000000000002" y="627.5673435557396" as="sourcePoint" />
            <mxPoint x="296.52" y="610" as="targetPoint" />
          </mxGeometry>
        </mxCell>
        <mxCell id="SMKUMiAi2w_2l_LrFnpY-27" value="Text" style="edgeLabel;html=1;align=center;verticalAlign=middle;resizable=0;points=[];" vertex="1" connectable="0" parent="SMKUMiAi2w_2l_LrFnpY-26">
          <mxGeometry x="0.3113" y="1" relative="1" as="geometry">
            <mxPoint as="offset" />
          </mxGeometry>
        </mxCell>
        <mxCell id="SMKUMiAi2w_2l_LrFnpY-28" value="Client" style="rounded=1;whiteSpace=wrap;html=1;fillColor=#f8cecc;strokeColor=#b85450;" vertex="1" parent="1">
          <mxGeometry x="226.51999999999998" y="570" width="120" height="60" as="geometry" />
        </mxCell>
      </root>
    </mxGraphModel>
  </diagram>
</mxfile>
